%YAML 1.1
%TAG !u! tag:unity3d.com,2011:
--- !u!21 &2100000
Material:
  serializedVersion: 6
  m_ObjectHideFlags: 0
  m_CorrespondingSourceObject: {fileID: 0}
  m_PrefabInstance: {fileID: 0}
  m_PrefabAsset: {fileID: 0}
  m_Name: Effects_Dither
  m_Shader: {fileID: 4800000, guid: 5365f2f98fc1fe0439a587191c10d0b9, type: 3}
  m_ShaderKeywords: 
  m_LightmapFlags: 4
  m_EnableInstancingVariants: 0
  m_DoubleSidedGI: 0
  m_CustomRenderQueue: -1
  stringTagMap: {}
  disabledShaderPasses: []
  m_SavedProperties:
    serializedVersion: 3
    m_TexEnvs:
    - _ColorRamp:
        m_Texture: {fileID: 2800000, guid: 14799a2fd8bbb06408c7476f200e0aaa, type: 3}
        m_Scale: {x: 1, y: 1}
        m_Offset: {x: 0, y: 0}
    - _Dither:
        m_Texture: {fileID: 2800000, guid: 1af691f516eb7574fa84e754ad9fd892, type: 3}
        m_Scale: {x: 1, y: 1}
        m_Offset: {x: 0, y: 0}
    - _MainTex:
        m_Texture: {fileID: 0}
        m_Scale: {x: 1, y: 1}
        m_Offset: {x: 0, y: 0}
    - _Noise:
        m_Texture: {fileID: 2800000, guid: 66de6c12984cd434c961de43bb60b84c, type: 3}
        m_Scale: {x: 1, y: 1}
        m_Offset: {x: 0, y: 0}
    m_Floats:
    - _Threshold: 0.1
    - _Tiling: 192
    m_Colors:
    - _BL: {r: -0.41093585, g: -0.41353008, b: 0.8124805, a: 0}
    - _BR: {r: 0.83742183, g: -0.41353008, b: 0.35737592, a: 0}
    - _TL: {r: -0.39489457, g: 0.3324104, b: 0.85648215, a: 0}
    - _TR: {r: 0.85346323, g: 0.3324104, b: 0.40137756, a: 0}
  m_BuildTextureStacks: []
