%YAML 1.1
%TAG !u! tag:unity3d.com,2011:
--- !u!114 &11400000
MonoBehaviour:
  m_ObjectHideFlags: 0
  m_CorrespondingSourceObject: {fileID: 0}
  m_PrefabInstance: {fileID: 0}
  m_PrefabAsset: {fileID: 0}
  m_GameObject: {fileID: 0}
  m_Enabled: 1
  m_EditorHideFlags: 0
  m_Script: {fileID: 11500000, guid: 11465d15533ce1a43aa5e808c61bb57e, type: 3}
  m_Name: Interactable_Text_Pathways
  m_EditorClassIdentifier: 
  text: I rather stay on the pathways, otherwise this shall be it for me
